p8
…
##21.3.4 Exercises

1. Find the 48 hours (over the course of the whole year) that have the worst delays. Cross-reference it with the weather data. Can you see any patterns?

flights2 <- flights |>
  select(year, month, day, dep_delay) |>
  arrange(desc(dep_delay))
  
flights2 |>
  left_join(weather |> select(day, year, month, temp, wind_speed, precip))

Joining, by = c("year", "month", "day")

# A tibble: 24,108,202 × 7
    year month   day dep_delay  temp wind_speed precip
   <int> <int> <int>     <dbl> <dbl>      <dbl>  <dbl>
 1  2013     1     9      1301  36.0       0         0
 2  2013     1     9      1301  34.0       0         0
 3  2013     1     9      1301  35.1       0         0
 4  2013     1     9      1301  36.0       0         0
 5  2013     1     9      1301  36.0       0         0
 6  2013     1     9      1301  35.1       0         0
 7  2013     1     9      1301  35.1       0         0
 8  2013     1     9      1301  34.0       4.60      0
 9  2013     1     9      1301  37.0       0         0
10  2013     1     9      1301  42.1       0         0
# … with 24,108,192 more rows
…
top_dest <- flights2 |> count(dest, sort = TRUE) |> head(10)

How can you find all flights to those destinations?

flights2 <- flights |> 
  select(year, time_hour, origin, dest, tailnum, carrier)

top_dest <- flights2 |>
  count(dest, sort = TRUE) |>
  head(10)

flights2 |>
  semi_join(top_dest, by = c("dest"))

# A tibble: 141,145 × 6
    year time_hour           origin dest  tailnum carrier
   <int> <dttm>              <chr>  <chr> <chr>   <chr>  
 1  2013 2013-01-01 05:00:00 JFK    MIA   N619AA  AA     
 2  2013 2013-01-01 06:00:00 LGA    ATL   N668DN  DL     
 3  2013 2013-01-01 05:00:00 EWR    ORD   N39463  UA     
 4  2013 2013-01-01 06:00:00 EWR    FLL   N516JB  B6     
 5  2013 2013-01-01 06:00:00 JFK    MCO   N593JB  B6     
 6  2013 2013-01-01 06:00:00 LGA    ORD   N3ALAA  AA     
 7  2013 2013-01-01 06:00:00 JFK    LAX   N29129  UA     
 8  2013 2013-01-01 06:00:00 EWR    SFO   N53441  UA     
 9  2013 2013-01-01 05:00:00 JFK    BOS   N708JB  B6     
10  2013 2013-01-01 06:00:00 LGA    FLL   N595JB  B6     
# … with 141,135 more rows

3. Does every departing flight have corresponding weather data for that hour?

flights2 |> 
  left_join(weather |> select(time_hour, temp, wind_speed, precip))

Joining, by = "time_hour"

# A tibble: 1,006,987 × 9
    year time_hour           origin dest  tailnum carrier  temp wind_sp…¹ precip
   <int> <dttm>              <chr>  <chr> <chr>   <chr>   <dbl>     <dbl>  <dbl>
 1  2013 2013-01-01 05:00:00 EWR    IAH   N14228  UA       39.0      12.7      0
 2  2013 2013-01-01 05:00:00 EWR    IAH   N14228  UA       39.0      15.0      0
 3  2013 2013-01-01 05:00:00 EWR    IAH   N14228  UA       39.9      15.0      0
 4  2013 2013-01-01 05:00:00 LGA    IAH   N24211  UA       39.0      12.7      0
 5  2013 2013-01-01 05:00:00 LGA    IAH   N24211  UA       39.0      15.0      0
 6  2013 2013-01-01 05:00:00 LGA    IAH   N24211  UA       39.9      15.0      0
 7  2013 2013-01-01 05:00:00 JFK    MIA   N619AA  AA       39.0      12.7      0
 8  2013 2013-01-01 05:00:00 JFK    MIA   N619AA  AA       39.0      15.0      0
 9  2013 2013-01-01 05:00:00 JFK    MIA   N619AA  AA       39.9      15.0      0
10  2013 2013-01-01 05:00:00 JFK    BQN   N804JB  B6       39.0      12.7      0
# … with 1,006,977 more rows, and abbreviated variable name ¹​wind_speed

4. What do the tail numbers that don’t have a matching record in planes have in common? (Hint: one variable explains ~90% of the problems.)

flights2 |>
  left_join(planes, by = c("tailnum"))

# A tibble: 336,776 × 14
   year.x time_hour           origin dest  tailnum carrier year.y type   manuf…¹
    <int> <dttm>              <chr>  <chr> <chr>   <chr>    <int> <chr>  <chr>  
 1   2013 2013-01-01 05:00:00 EWR    IAH   N14228  UA        1999 Fixed… BOEING 
 2   2013 2013-01-01 05:00:00 LGA    IAH   N24211  UA        1998 Fixed… BOEING 
 3   2013 2013-01-01 05:00:00 JFK    MIA   N619AA  AA        1990 Fixed… BOEING 
 4   2013 2013-01-01 05:00:00 JFK    BQN   N804JB  B6        2012 Fixed… AIRBUS 
 5   2013 2013-01-01 06:00:00 LGA    ATL   N668DN  DL        1991 Fixed… BOEING 
 6   2013 2013-01-01 05:00:00 EWR    ORD   N39463  UA        2012 Fixed… BOEING 
 7   2013 2013-01-01 06:00:00 EWR    FLL   N516JB  B6        2000 Fixed… AIRBUS…
 8   2013 2013-01-01 06:00:00 LGA    IAD   N829AS  EV        1998 Fixed… CANADA…
 9   2013 2013-01-01 06:00:00 JFK    MCO   N593JB  B6        2004 Fixed… AIRBUS 
10   2013 2013-01-01 06:00:00 LGA    ORD   N3ALAA  AA          NA <NA>   <NA>   
# … with 336,766 more rows, 5 more variables: model <chr>, engines <int>,
#   seats <int>, speed <int>, engine <chr>, and abbreviated variable name
#   ¹​manufacturer

Their type is not fixed wing multi engine

5. Add a column to planes that lists every carrier that has flown that plane. You might expect that there’s an implicit relationship between plane and airline, because each plane is flown by a single airline. Confirm or reject this hypothesis using the tools you’ve learned in previous chapters.

planes2 <- planes |>
  left_join(flights, by = c("tailnum")) |>
  select(model, manufacturer, tailnum, carrier)

planes2

# A tibble: 284,170 × 4
   model     manufacturer tailnum carrier
   <chr>     <chr>        <chr>   <chr>  
 1 EMB-145XR EMBRAER      N10156  EV     
 2 EMB-145XR EMBRAER      N10156  EV     
 3 EMB-145XR EMBRAER      N10156  EV     
 4 EMB-145XR EMBRAER      N10156  EV     
 5 EMB-145XR EMBRAER      N10156  EV     
 6 EMB-145XR EMBRAER      N10156  EV     
 7 EMB-145XR EMBRAER      N10156  EV     
 8 EMB-145XR EMBRAER      N10156  EV     
 9 EMB-145XR EMBRAER      N10156  EV     
10 EMB-145XR EMBRAER      N10156  EV     
# … with 284,160 more rows

#I think this hypothesis is correct

6. Add the latitude and the longitude of the origin and destination airport to flights. Is it easier to rename the columns before or after the join?

new_flights <- flights |>
  left_join(airports, by = c("origin" = "faa")) |>
  left_join(airports, by = c("dest" = "faa"))

new_flights

# A tibble: 336,776 × 33
    year month   day dep_time sched_de…¹ dep_d…² arr_t…³ sched…⁴ arr_d…⁵ carrier
   <int> <int> <int>    <int>      <int>   <dbl>   <int>   <int>   <dbl> <chr>  
 1  2013     1     1      517        515       2     830     819      11 UA     
 2  2013     1     1      533        529       4     850     830      20 UA     
 3  2013     1     1      542        540       2     923     850      33 AA     
 4  2013     1     1      544        545      -1    1004    1022     -18 B6     
 5  2013     1     1      554        600      -6     812     837     -25 DL     
 6  2013     1     1      554        558      -4     740     728      12 UA     
 7  2013     1     1      555        600      -5     913     854      19 B6     
 8  2013     1     1      557        600      -3     709     723     -14 EV     
 9  2013     1     1      557        600      -3     838     846      -8 B6     
10  2013     1     1      558        600      -2     753     745       8 AA     
# … with 336,766 more rows, 23 more variables: flight <int>, tailnum <chr>,
#   origin <chr>, dest <chr>, air_time <dbl>, distance <dbl>, hour <dbl>,
#   minute <dbl>, time_hour <dttm>, name.x <chr>, lat.x <dbl>, lon.x <dbl>,
#   alt.x <dbl>, tz.x <dbl>, dst.x <chr>, tzone.x <chr>, name.y <chr>,
#   lat.y <dbl>, lon.y <dbl>, alt.y <dbl>, tz.y <dbl>, dst.y <chr>,
#   tzone.y <chr>, and abbreviated variable names ¹​sched_dep_time, ²​dep_delay,
#   ³​arr_time, ⁴​sched_arr_time, ⁵​arr_delay

#it is easy to rename the columns either way because R will rename it lat.x and lat.y for origin and destination

7. Compute the average delay by destination, then join on the airports data frame so you can show the spatial distribution of delays.

mean_delay <- airports |>
  left_join(flights, by = c("faa" = "dest")) |>
  filter(!is.na(dep_delay)) |>
  group_by(name) |>
  mutate(mean = mean(dep_delay))

mean_delay

# A tibble: 320,960 × 27
# Groups:   name [100]
   faa   name        lat   lon   alt    tz dst   tzone  year month   day dep_t…¹
   <chr> <chr>     <dbl> <dbl> <dbl> <dbl> <chr> <chr> <int> <int> <int>   <int>
 1 ABQ   Albuquer…  35.0 -107.  5355    -7 A     Amer…  2013    10     1    1955
 2 ABQ   Albuquer…  35.0 -107.  5355    -7 A     Amer…  2013    10     2    2010
 3 ABQ   Albuquer…  35.0 -107.  5355    -7 A     Amer…  2013    10     3    1955
 4 ABQ   Albuquer…  35.0 -107.  5355    -7 A     Amer…  2013    10     4    2017
 5 ABQ   Albuquer…  35.0 -107.  5355    -7 A     Amer…  2013    10     5    1959
 6 ABQ   Albuquer…  35.0 -107.  5355    -7 A     Amer…  2013    10     6    1959
 7 ABQ   Albuquer…  35.0 -107.  5355    -7 A     Amer…  2013    10     7    2002
 8 ABQ   Albuquer…  35.0 -107.  5355    -7 A     Amer…  2013    10     8    1957
 9 ABQ   Albuquer…  35.0 -107.  5355    -7 A     Amer…  2013    10     9    1957
10 ABQ   Albuquer…  35.0 -107.  5355    -7 A     Amer…  2013    10    10    2011
# … with 320,950 more rows, 15 more variables: sched_dep_time <int>,
#   dep_delay <dbl>, arr_time <int>, sched_arr_time <int>, arr_delay <dbl>,
#   carrier <chr>, flight <int>, tailnum <chr>, origin <chr>, air_time <dbl>,
#   distance <dbl>, hour <dbl>, minute <dbl>, time_hour <dttm>, mean <dbl>, and
#   abbreviated variable name ¹​dep_time
…
